{
  "page": 2,
  "total_results": 10000,
  "total_pages": 500,
  "results": [
    {
      "popularity": 71.738,
      "vote_count": 14846,
      "video": false,
      "poster_path": "\/sdEOH0992YZ0QSxgXNIGLq1ToUi.jpg",
      "id": 672,
      "adult": false,
      "backdrop_path": "\/bvRnPaai6JL7XHF4K6414DdSHro.jpg",
      "original_language": "en",
      "original_title": "Harry Potter and the Chamber of Secrets",
      "genre_ids": [
        12,
        14
      ],
      "title": "Harry Potter and the Chamber of Secrets (Mock)",
      "vote_average": 7.7,
      "overview": "Cars fly, trees fight back, and a mysterious house-elf comes to warn Harry Potter at the start of his second year at Hogwarts. Adventure and danger await when bloody writing on a wall announces: The Chamber Of Secrets Has Been Opened. To save Hogwarts will require all of Harry, Ron and Hermione’s magical abilities and courage.",
      "release_date": "2002-11-13"
    },
    {
      "popularity": 70.153,
      "vote_count": 5529,
      "video": false,
      "poster_path": "\/h4VB6m0RwcicVEZvzftYZyKXs6K.jpg",
      "id": 495764,
      "adult": false,
      "backdrop_path": "\/9xNOiv6DZZjH7ABoUUDP0ZynouU.jpg",
      "original_language": "en",
      "original_title": "Birds of Prey (and the Fantabulous Emancipation of One Harley Quinn)",
      "genre_ids": [
        28,
        35,
        80
      ],
      "title": "Birds of Prey (and the Fantabulous Emancipation of One Harley Quinn)",
      "vote_average": 7.2,
      "overview": "Harley Quinn joins forces with a singer, an assassin and a police detective to help a young girl who had a hit placed on her after she stole a rare diamond from a crime lord.",
      "release_date": "2020-02-05"
    },
    {
      "popularity": 69.047,
      "vote_count": 25,
      "video": false,
      "poster_path": "\/9MMeU6ibk1Vgq85lxiiIh1XLDHC.jpg",
      "id": 721452,
      "adult": false,
      "backdrop_path": "\/5aF4zSJNhhWgKrnITUeTx5U91KX.jpg",
      "original_language": "en",
      "original_title": "One Night in Bangkok",
      "genre_ids": [
        28,
        53
      ],
      "title": "One Night in Bangkok",
      "vote_average": 7.8,
      "overview": "A hit man named Kai flies into Bangkok, gets a gun, and orders a cab. He offers a professional female driver big money to be his all-night driver. But when she realizes Kai is committing brutal murders at each stop, it's too late to walk away. Meanwhile, an offbeat police detective races to decode the string of slayings before more blood is spilled.",
      "release_date": "2020-08-25"
    },
    {
      "popularity": 67.663,
      "vote_count": 17608,
      "video": false,
      "poster_path": "\/6oom5QYQ2yQTMJIbnvbkBL9cHo6.jpg",
      "id": 120,
      "adult": false,
      "backdrop_path": "\/vRQnzOn4HjIMX4LBq9nHhFXbsSu.jpg",
      "original_language": "en",
      "original_title": "The Lord of the Rings: The Fellowship of the Ring",
      "genre_ids": [
        28,
        12,
        14
      ],
      "title": "The Lord of the Rings: The Fellowship of the Ring",
      "vote_average": 8.3,
      "overview": "Young hobbit Frodo Baggins, after inheriting a mysterious ring from his uncle Bilbo, must leave his home in order to keep it from falling into the hands of its evil creator. Along the way, a fellowship is formed to protect the ringbearer and make sure that the ring arrives at its final destination: Mt. Doom, the only place where it can be destroyed.",
      "release_date": "2001-12-18"
    },
    {
      "popularity": 66.343,
      "vote_count": 8894,
      "video": false,
      "poster_path": "\/7IiTTgloJzvGI1TAYymCfbfl3vT.jpg",
      "id": 496243,
      "adult": false,
      "backdrop_path": "\/ApiBzeaa95TNYliSbQ8pJv4Fje7.jpg",
      "original_language": "ko",
      "original_title": "기생충",
      "genre_ids": [
        35,
        18,
        53
      ],
      "title": "Parasite",
      "vote_average": 8.5,
      "overview": "All unemployed, Ki-taek's family takes peculiar interest in the wealthy and glamorous Parks for their livelihood until they get entangled in an unexpected incident.",
      "release_date": "2019-05-30"
    },
    {
      "popularity": 64.25,
      "vote_count": 990,
      "video": false,
      "poster_path": "\/kjMbDciooTbJPofVXgAoFjfX8Of.jpg",
      "id": 516486,
      "adult": false,
      "backdrop_path": "\/xXBnM6uSTk6qqCf0SRZKXcga9Ba.jpg",
      "original_language": "en",
      "original_title": "Greyhound",
      "genre_ids": [
        28,
        18,
        10752
      ],
      "title": "Greyhound",
      "vote_average": 7.5,
      "overview": "A first-time captain leads a convoy of allied ships carrying thousands of soldiers across the treacherous waters of the “Black Pit” to the front lines of WW2. With no air cover protection for 5 days, the captain and his convoy must battle the surrounding enemy Nazi U-boats in order to give the allies a chance to win the war.",
      "release_date": "2020-06-19"
    },
    {
      "popularity": 64.032,
      "vote_count": 17873,
      "video": false,
      "poster_path": "\/wuMc08IPKEatf9rnMNXvIDxqP4W.jpg",
      "id": 671,
      "adult": false,
      "backdrop_path": "\/hziiv14OpD73u9gAak4XDDfBKa2.jpg",
      "original_language": "en",
      "original_title": "Harry Potter and the Philosopher's Stone",
      "genre_ids": [
        12,
        14,
        10751
      ],
      "title": "Harry Potter and the Philosopher's Stone",
      "vote_average": 7.9,
      "overview": "Harry Potter has lived under the stairs at his aunt and uncle's house his whole life. But on his 11th birthday, he learns he's a powerful wizard -- with a place waiting for him at the Hogwarts School of Witchcraft and Wizardry. As he learns to harness his newfound powers with the help of the school's kindly headmaster, Harry uncovers the truth about his parents' deaths -- and about the villain who's to blame.",
      "release_date": "2001-11-16"
    },
    {
      "popularity": 63.596,
      "vote_count": 25,
      "video": false,
      "poster_path": "\/7Sld9EbL3xGJnZEsqKofyYelWjA.jpg",
      "id": 632618,
      "adult": false,
      "backdrop_path": "\/cVdYaAQmd5DZNdo0KFJruz7JpUs.jpg",
      "original_language": "es",
      "original_title": "Crímenes de familia",
      "genre_ids": [
        80,
        18,
        53
      ],
      "title": "The Crimes That Bind",
      "vote_average": 7.3,
      "overview": "When her son is accused of raping and trying to murder his ex-wife, Alicia embarks on a journey that will change her life forever.",
      "release_date": "2020-08-20"
    },
    {
      "popularity": 63.426,
      "vote_count": 8,
      "video": false,
      "poster_path": "\/bAwtbmCzhFwKf2wN6QQH301ylbO.jpg",
      "id": 671145,
      "adult": false,
      "backdrop_path": "\/rq9kv233eEKnYfe8r5fi8SP5T7e.jpg",
      "original_language": "en",
      "original_title": "Before the Fire",
      "genre_ids": [
        28,
        878,
        53
      ],
      "title": "Before the Fire",
      "vote_average": 6.6,
      "overview": "Deep in the throes of a global pandemic, up and coming TV star, Ava Boone, is forced to flee the mounting chaos in Los Angeles and return to her rural hometown.  But as she struggles to acclimate to a way of life she left behind long ago, her homecoming attracts a dangerous figure from her past – threatening both her and the family that serves as her only sanctuary.",
      "release_date": "2020-03-14"
    },
    {
      "popularity": 63.014,
      "vote_count": 52,
      "video": false,
      "poster_path": "\/sy6DvAu72kjoseZEjocnm2ZZ09i.jpg",
      "id": 581392,
      "adult": false,
      "backdrop_path": "\/oamFZb8Gj5NJ24OLDd07wyNVX4N.jpg",
      "original_language": "ko",
      "original_title": "반도",
      "genre_ids": [
        28,
        27,
        53
      ],
      "title": "Peninsula",
      "vote_average": 6.1,
      "overview": "A soldier and his team battle hordes of post-apocalyptic zombies in the wastelands of the Korean Peninsula.",
      "release_date": "2020-07-15"
    },
    {
      "popularity": 62.621,
      "vote_count": 5479,
      "video": false,
      "poster_path": "\/db32LaOibwEliAmSL2jjDF6oDdj.jpg",
      "id": 181812,
      "adult": false,
      "backdrop_path": "\/SPkEiZGxq5aHWQ2Zw7AITwSEo2.jpg",
      "original_language": "en",
      "original_title": "Star Wars: The Rise of Skywalker",
      "genre_ids": [
        28,
        12,
        878
      ],
      "title": "Star Wars: The Rise of Skywalker",
      "vote_average": 6.6,
      "overview": "The surviving Resistance faces the First Order once again as the journey of Rey, Finn and Poe Dameron continues. With the power and knowledge of generations behind them, the final battle begins.",
      "release_date": "2019-12-18"
    },
    {
      "popularity": 61.365,
      "vote_count": 1802,
      "video": false,
      "poster_path": "\/cjr4NWURcVN3gW5FlHeabgBHLrY.jpg",
      "id": 547016,
      "adult": false,
      "backdrop_path": "\/m0ObOaJBerZ3Unc74l471ar8Iiy.jpg",
      "original_language": "en",
      "original_title": "The Old Guard",
      "genre_ids": [
        28,
        14
      ],
      "title": "The Old Guard",
      "vote_average": 7.3,
      "overview": "Four undying warriors who've secretly protected humanity for centuries become targeted for their mysterious powers just as they discover a new immortal.",
      "release_date": "2020-07-10"
    },
    {
      "popularity": 60.219,
      "vote_count": 5453,
      "video": false,
      "poster_path": "\/aQvJ5WPzZgYVDrxLX4R6cLJCEaQ.jpg",
      "id": 454626,
      "adult": false,
      "backdrop_path": "\/stmYfCUGd8Iy6kAMBr6AmWqx8Bq.jpg",
      "original_language": "en",
      "original_title": "Sonic the Hedgehog",
      "genre_ids": [
        28,
        35,
        878,
        10751
      ],
      "title": "Sonic the Hedgehog",
      "vote_average": 7.5,
      "overview": "Based on the global blockbuster videogame franchise from Sega, Sonic the Hedgehog tells the story of the world’s speediest hedgehog as he embraces his new home on Earth. In this live-action adventure comedy, Sonic and his new best friend team up to defend the planet from the evil genius Dr. Robotnik and his plans for world domination.",
      "release_date": "2020-02-12"
    },
    {
      "popularity": 59.695,
      "vote_count": 14168,
      "video": false,
      "poster_path": "\/6FfCtAuVAW8XJjZ7eWeLibRLWTw.jpg",
      "id": 11,
      "adult": false,
      "backdrop_path": "\/zqkmTXzjkAgXmEWLRsY4UpTWCeo.jpg",
      "original_language": "en",
      "original_title": "Star Wars",
      "genre_ids": [
        28,
        12,
        878
      ],
      "title": "Star Wars",
      "vote_average": 8.2,
      "overview": "Princess Leia is captured and held hostage by the evil Imperial forces in their effort to take over the galactic Empire. Venturesome Luke Skywalker and dashing captain Han Solo team together with the loveable robot duo R2-D2 and C-3PO to rescue the beautiful princess and restore peace and justice in the Empire.",
      "release_date": "1977-05-25"
    },
    {
      "popularity": 59.497,
      "vote_count": 327,
      "video": false,
      "poster_path": "\/5Np88iigCfnXvMlMKmCcbPVIbYQ.jpg",
      "id": 9423,
      "adult": false,
      "backdrop_path": "\/3WQoPndQSg9odIwHWwPNT7COZxR.jpg",
      "original_language": "en",
      "original_title": "Virus",
      "genre_ids": [
        28,
        27,
        878
      ],
      "title": "Virus",
      "vote_average": 5.2,
      "overview": "When the crew of an American tugboat boards an abandoned Russian research vessel, the alien life form aboard regards them as a virus which must be destroyed.",
      "release_date": "1999-01-14"
    },
    {
      "popularity": 59.477,
      "id": 8392,
      "video": false,
      "vote_count": 4795,
      "vote_average": 8.1,
      "title": "My Neighbor Totoro",
      "release_date": "1988-04-16",
      "original_language": "ja",
      "original_title": "となりのトトロ",
      "genre_ids": [
        14,
        16,
        10751
      ],
      "backdrop_path": "\/95ozIP0A2fKaAXxwDxUEVn74Iux.jpg",
      "adult": false,
      "overview": "Two sisters move to the country with their father in order to be closer to their hospitalized mother, and discover the surrounding trees are inhabited by Totoros, magical spirits of the forest. When the youngest runs away from home, the older sister seeks help from the spirits to find her.",
      "poster_path": "\/rtGDOeG9LzoerkDGZF9dnVeLppL.jpg"
    },
    {
      "popularity": 58.552,
      "vote_count": 9,
      "video": false,
      "poster_path": "\/3HTGI8svDX6FlJhKCQk1vhbqHFe.jpg",
      "id": 289007,
      "adult": false,
      "backdrop_path": null,
      "original_language": "en",
      "original_title": "Strippers from Another World",
      "genre_ids": [
        35,
        878
      ],
      "title": "Strippers from Another World",
      "vote_average": 6.7,
      "overview": "When two nerdy college coeds, Erika Jordan and Krissy Lynn, wish upon a falling star they are whisked into outer space where an alien experiment transforms them into hot sexy space babes who return to Earth as strippers.",
      "release_date": "2013-08-20"
    },
    {
      "popularity": 58.495,
      "vote_count": 112,
      "video": false,
      "poster_path": "\/5MSDwUcqnGodFTvtlLiLKK0XKS.jpg",
      "id": 521034,
      "adult": false,
      "backdrop_path": "\/8PK4X8U3C79ilzIjNTkTgjmc4js.jpg",
      "original_language": "en",
      "original_title": "The Secret Garden",
      "genre_ids": [
        18,
        14,
        10751
      ],
      "title": "The Secret Garden",
      "vote_average": 7.3,
      "overview": "Mary Lennox is born in India to wealthy British parents who never wanted her. When her parents suddenly die, she is sent back to England to live with her uncle. She meets her sickly cousin, and the two children find a wondrous secret garden lost in the grounds of Misselthwaite Manor.",
      "release_date": "2020-07-08"
    },
    {
      "popularity": 57.731,
      "vote_count": 489,
      "video": false,
      "poster_path": "\/jHo2M1OiH9Re33jYtUQdfzPeUkx.jpg",
      "id": 385103,
      "adult": false,
      "backdrop_path": "\/fKtYXUhX5fxMxzQfyUcQW9Shik6.jpg",
      "original_language": "en",
      "original_title": "Scoob!",
      "genre_ids": [
        12,
        16,
        35,
        10751
      ],
      "title": "Scoob!",
      "vote_average": 7.4,
      "overview": "In Scooby-Doo’s greatest adventure yet, see the never-before told story of how lifelong friends Scooby and Shaggy first met and how they joined forces with young detectives Fred, Velma, and Daphne to form the famous Mystery Inc. Now, with hundreds of cases solved, Scooby and the gang face their biggest, toughest mystery ever: an evil plot to unleash the ghost dog Cerberus upon the world. As they race to stop this global “dogpocalypse,” the gang discovers that Scooby has a secret legacy and an epic destiny greater than anyone ever imagined.",
      "release_date": "2020-07-08"
    },
    {
      "popularity": 57.07,
      "vote_count": 12253,
      "video": false,
      "poster_path": "\/kgwjIb2JDHRhNk13lmSxiClFjVk.jpg",
      "id": 109445,
      "adult": false,
      "backdrop_path": "\/fydUcbkqLyESCFa9U5XKqi8dIVj.jpg",
      "original_language": "en",
      "original_title": "Frozen",
      "genre_ids": [
        12,
        16,
        10751
      ],
      "title": "Frozen",
      "vote_average": 7.3,
      "overview": "Young princess Anna of Arendelle dreams about finding true love at her sister Elsa’s coronation. Fate takes her on a dangerous journey in an attempt to end the eternal winter that has fallen over the kingdom. She's accompanied by ice delivery man Kristoff, his reindeer Sven, and snowman Olaf. On an adventure where she will find out what friendship, courage, family, and true love really means.",
      "release_date": "2013-11-27"
    }
  ]
}
